…
    ## # A tibble: 2 x 4
    ##   size   mean   sum     n
    ##   <chr> <dbl> <dbl> <int>
    ## 1 large  55.3   166     3
    ## 2 small  28.7    86     3

``` r
tb
```

    ## # A tibble: 3,800 x 6
    ##    country      year sex    child adult elderly
    ##  * <chr>       <int> <chr>  <int> <int>   <int>
    ##  1 Afghanistan  1995 female    NA    NA      NA
    ##  2 Afghanistan  1995 male      NA    NA      NA
    ##  3 Afghanistan  1996 female    NA    NA      NA
    ##  4 Afghanistan  1996 male      NA    NA      NA
    ##  5 Afghanistan  1997 female     5    96       1
    ##  6 Afghanistan  1997 male       0    26       0
    ##  7 Afghanistan  1998 female    45  1142      20
    ##  8 Afghanistan  1998 male      30   500      41
    ##  9 Afghanistan  1999 female    25   484       8
    ## 10 Afghanistan  1999 male       8   212       8
    ## # ... with 3,790 more rows

``` r
tb %>% group_by(country, sex) %>% summarise(n = n())
```

    ## # A tibble: 200 x 3
    ## # Groups:   country [100]
    ##    country     sex        n
    ##    <chr>       <chr>  <int>
    ##  1 Afghanistan female    19
    ##  2 Afghanistan male      19
    ##  3 Algeria     female    19
    ##  4 Algeria     male      19
    ##  5 Angola      female    19
    ##  6 Angola      male      19
    ##  7 Argentina   female    19
    ##  8 Argentina   male      19
    ##  9 Azerbaijan  female    19
    ## 10 Azerbaijan  male      19
    ## # ... with 190 more rows
…
